<?xml version="1.0" encoding="UTF-8" standalone="no"?>
<!-- Created with Inkscape (http://www.inkscape.org/) -->
<svg
   xmlns:svg="http://www.w3.org/2000/svg"
   xmlns="http://www.w3.org/2000/svg"
   version="1.0"
   width="300"
   height="20"
   viewBox="0 0 1510 100"
   id="svg2">
  <defs
     id="defs4">
    <style
       type="text/css"
       id="style6106" ><![CDATA[
			
			.filled {fill: #101010;}
			.empty {fill: white;}
			.unknown {fill:#909090;}
      * {stroke: black; stroke-width: 2}
		]]>
		</style>
  </defs>
  <g
     id="layer1">
    <g
       transform="matrix(0.9989474,0,0,0.9823308,501.56203,1.2763185)"
       class="fill-opacity:1;stroke:#000000;stroke-width:2;stroke-miterlimit:4;stroke-dasharray:none;stroke-opacity:1"
       id="g2184">
      <rect
         width="100"
         height="100"
         x="0"
         y="0"
         class="unknown"
         id="cell1" />
      <rect
         width="100"
         height="100"
         x="100"
         y="0"
         class="unknown"
         id="cell2" />
      <rect
         width="100"
         height="100"
         x="200"
         y="0"
         class="empty"
         id="cell3" />
      <rect
         width="100"
         height="100"
         x="300"
         y="0"
         class="unknown"
         id="cell4" />
      <rect
         width="100"
         height="100"
         x="400"
         y="0"
         class="unknown"
         id="cell5" />
      <rect
         width="100"
         height="100"
         x="500"
         y="0"
         class="unknown"
         id="cell6" />
      <rect
         width="100"
         height="100"
         x="600"
         y="0"
         class="unknown"
         id="cell7" />
      <rect
         width="100"
         height="100"
         x="700"
         y="0"
         class="unknown"
         id="cell8" />
      <rect
         width="100"
         height="100"
         x="800"
         y="0"
         class="unknown"
         id="cell9" />
      <rect
         width="100"
         height="100"
         x="900"
         y="0"
         class="unknown"
         id="cell10" />
    </g>
    <text
       x="417.21094"
       y="74.015625"
       style="font-size:72px;font-style:normal;font-weight:normal;text-anchor:end;fill:#000000;fill-opacity:1;stroke:none;stroke-width:1px;stroke-linecap:butt;stroke-linejoin:miter;stroke-opacity:1;font-family:Bitstream Vera Sans"
       id="text4144"
       xml:space="preserve"><tspan
         x="417.21094"
         y="74.015625"
         id="tspan4146">3, 2</tspan></text>
    <path
       d="M 450.5,-0.0051019898 L 450.5,102.02031"
       style="fill:none;fill-rule:evenodd;stroke:#000000;stroke-width:3;stroke-linecap:butt;stroke-linejoin:miter;stroke-miterlimit:4;stroke-dasharray:none;stroke-opacity:1"
       id="path4166" />
  </g>
</svg>
